{
  "pools": [
    {
      "rolls": 1,
      "entries": [
        {
          "type": "item",
          "name": "minecraft:gunpowder",
          "functions": [
            {
              "function": "set_count",
              "count": {
                "min": 1,
                "max": 4
              }
            },
            {
              "function": "looting_enchant",
              "count": {
                "min": 0,
                "max": 1
              },
              "limit": 4
            }
          ]
        }
      ]
    },
    {
      "rolls": 1,
      "entries": [
        {
          "type": "item",
          "name": "minecraft:snowball",
          "functions": [
            {
              "function": "set_nbt",
              "tag": "{display:{Name:\"§3Snowflake\"},ench:[{id:9,lvl:1}],HideFlags:1}"
            }
          ],
          "conditions": [
            {
              "condition": "random_chance_with_looting",
              "chance": 0.15,
              "looting_multiplier": 0.05
            }
          ]
        }
      ]
    },
    {
      "rolls": 1,
      "entries": [
        {
          "type": "loot_table",
          "name": "minecraft:entities/snowman"
        }
      ]
    },
    {
      "conditions": [
        {
          "condition": "random_chance_with_looting",
          "chance": 0.01,
          "looting_multiplier": 0.005
        }
      ],
      "rolls": 1,
      "entries": [
        {
          "type": "item",
          "weight": 3,
          "name": "minecraft:skull",
          "functions": [
            {
              "function": "set_nbt",
              "tag": "{SkullOwner:{Id:\"ea7c10b2-887c-5911-88f0-05b67af59f45\",Properties:{textures:[{Value:\"eyJ0ZXh0dXJlcyI6eyJTS0lOIjp7InVybCI6Imh0dHA6Ly90ZXh0dXJlcy5taW5lY3JhZnQubmV0L3RleHR1cmUvZTU0MzM2YTcwZjA1OWU2MjkzYTgwYWEwOTdkOTgxZTY1N2Q3YjdhNGM2YWRlNmQ2ODJjMjRhNmJkMWIyNTQ3NyJ9fX0=\"}]},Name:\"Snowman\"}}"
            },
            {
              "function": "set_data",
              "data": 3
            }
          ]
        }
      ]
    }
  ]
}